Take Home Assignment 1 – ISSS608
…
✅ Data summary complete: 37243 records, total population 4193530, across 42 PAs and 235 subzones.

# Show random rows
set.seed(2025)
sgdemo2024 %>% 
  slice_sample(prop = 0.01)

# A tibble: 372 × 6
   PA            SZ                    Age Sex       Pop  Time
   <chr>         <chr>               <int> <fct>   <dbl> <dbl>
 1 Tampines      Tampines North         68 Males      70  2024
 2 Toa Payoh     Boon Teck              41 Females    80  2024
 3 Toa Payoh     Joo Seng               50 Males      60  2024
 4 Bukit Panjang Dairy Farm             71 Males      30  2024
 5 Ang Mo Kio    Yio Chu Kang East      56 Males      40  2024
 6 Queenstown    Commonwealth           73 Males      30  2024
 7 Bukit Merah   Redhill                44 Males      80  2024
 8 Clementi      Sunset Way             68 Females    60  2024
 9 Jurong West   Jurong West Central    10 Females   300  2024
10 Bukit Timah   Anak Bukit             51 Males     150  2024
# ℹ 362 more rows
…
